<?xml version="1.0" encoding="UTF-8" standalone="no"?>
<svg
   xmlns:dc="http://purl.org/dc/elements/1.1/"
   xmlns:cc="http://creativecommons.org/ns#"
   xmlns:rdf="http://www.w3.org/1999/02/22-rdf-syntax-ns#"
   xmlns:svg="http://www.w3.org/2000/svg"
   xmlns="http://www.w3.org/2000/svg"
   xmlns:sodipodi="http://sodipodi.sourceforge.net/DTD/sodipodi-0.dtd"
   xmlns:inkscape="http://www.inkscape.org/namespaces/inkscape"
   version="1.1"
   x="0px"
   y="0px"
   viewBox="0 0 100 100"
   enable-background="new 0 0 100 100"
   xml:space="preserve"
   id="svg142"
   sodipodi:docname="laptop.svg"
   inkscape:version="0.92.3 (2405546, 2018-03-11)"
   inkscape:export-filename="/home/abhas/Code/00-websites/mhx230.sep.wiki/docs/images/x230.png"
   inkscape:export-xdpi="192"
   inkscape:export-ydpi="192"><metadata
     id="metadata148"><rdf:RDF><cc:Work
         rdf:about=""><dc:format>image/svg+xml</dc:format><dc:type
           rdf:resource="http://purl.org/dc/dcmitype/StillImage" /><dc:title></dc:title></cc:Work></rdf:RDF></metadata><defs
     id="defs146" /><sodipodi:namedview
     pagecolor="#ffffff"
     bordercolor="#666666"
     borderopacity="1"
     objecttolerance="10"
     gridtolerance="10"
     guidetolerance="10"
     inkscape:pageopacity="0"
     inkscape:pageshadow="2"
     inkscape:window-width="1920"
     inkscape:window-height="1027"
     id="namedview144"
     showgrid="false"
     inkscape:zoom="4.72"
     inkscape:cx="0.14726541"
     inkscape:cy="44.523595"
     inkscape:window-x="0"
     inkscape:window-y="30"
     inkscape:window-maximized="1"
     inkscape:current-layer="g138" /><g
     id="g140"><g
       id="g138"><path
         fill="none"
         d="M64.06,69.173c-1.734-0.112-3.46-0.215-5.194-0.328c-0.014,0.392-0.037,0.784-0.051,1.176l-0.001,0.009    c1.771,0.133,3.531,0.285,5.301,0.428C64.085,70.026,64.073,69.595,64.06,69.173z"
         id="path2" /><path
         fill="none"
         d="M63.932,65.674c-1.641-0.107-3.283-0.205-4.924-0.312c-0.031,0.681-0.054,1.373-0.085,2.054    c1.697,0.12,3.383,0.248,5.08,0.368C63.97,67.08,63.946,66.377,63.932,65.674z"
         id="path4" /><path
         fill="none"
         d="M58.11,63.924c0.024-0.41,0.058-0.82,0.083-1.24c-1.604-0.105-3.199-0.19-4.803-0.304    c-0.005,0.402-0.001,0.796-0.006,1.198C54.961,63.68,56.535,63.811,58.11,63.924z"
         id="path6" /><path
         fill="none"
         d="M58.271,61.537c0.082-0.912,0.202-1.823,0.348-2.713c-1.755-0.076-3.511-0.143-5.256-0.238    c0.005,0.861,0.019,1.723,0.024,2.594C55.018,61.306,56.64,61.412,58.271,61.537z"
         id="path8" /><path
         fill="none"
         d="M63.892,63.032c-1.586-0.094-3.172-0.179-4.757-0.283c-0.024,0.41-0.049,0.83-0.064,1.241    c1.612,0.124,3.224,0.248,4.845,0.372C63.905,63.922,63.893,63.481,63.892,63.032z"
         id="path10" /><path
         fill="none"
         d="M69.998,62.356c0.065-1.091,0.139-2.173,0.221-3.244c-1.823-0.034-3.647-0.067-5.479-0.111    c0.044,0.995,0.078,1.998,0.112,3.002C66.567,62.124,68.283,62.235,69.998,62.356z"
         id="path12" /><path
         fill="none"
         d="M74.643,75.7c-0.021-1.068-0.022-2.145-0.034-3.213c-1.344-0.061-2.669-0.131-4.004-0.191    c-0.082,1.072-0.183,2.133-0.284,3.194c1.498,0.145,2.995,0.319,4.493,0.473C74.724,75.91,74.645,75.831,74.643,75.7z"
         id="path14" /><path
         fill="none"
         d="M63.928,58.971c-1.533-0.035-3.067-0.061-4.599-0.114c-0.045,0.915-0.09,1.829-0.135,2.744    c1.566,0.112,3.132,0.224,4.698,0.336C63.894,60.945,63.906,59.962,63.928,58.971z"
         id="path16" /><path
         fill="none"
         d="M52.416,63.501c0.014-0.392,0.028-0.794,0.033-1.187c-1.361-0.1-2.731-0.2-4.091-0.309    c-0.007,0.43-0.003,0.833,0.003,1.208C49.713,63.303,51.064,63.411,52.416,63.501z"
         id="path18" /><path
         fill="none"
         d="M52.589,58.55c-1.167-0.06-2.343-0.111-3.508-0.19c-0.012,0.046-0.005,0.084-0.036,0.129    c-0.415,0.518-0.569,1.389-0.643,2.311c1.36,0.109,2.721,0.209,4.082,0.308C52.516,60.249,52.557,59.4,52.589,58.55z"
         id="path20" /><path
         fill="none"
         d="M43.808,58.402c-0.199,0.671-0.36,1.336-0.522,2.01c1.472,0.116,2.954,0.222,4.426,0.338    c0.006-0.889,0.06-1.803,0.603-2.435c-1.566-0.112-3.143-0.196-4.708-0.327C43.753,58.062,43.866,58.209,43.808,58.402z"
         id="path22" /><path
         fill="none"
         d="M48.304,64.651c-0.05,0.69-0.091,1.371-0.141,2.06c1.427,0.085,2.844,0.179,4.272,0.263    c-0.016-0.675-0.022-1.359-0.019-2.042C51.045,64.833,49.674,64.751,48.304,64.651z"
         id="path24" /><path
         fill="none"
         d="M58.075,65.307c-1.575-0.112-3.142-0.206-4.727-0.309c-0.012,0.673-0.043,1.355-0.083,2.026    c1.604,0.105,3.206,0.228,4.81,0.333C58.059,66.673,58.072,65.99,58.075,65.307z"
         id="path26" /><path
         fill="none"
         d="M52.507,68.421c-1.491-0.107-2.974-0.205-4.465-0.322c-0.033,0.401-0.057,0.792-0.098,1.183    c3.414,0.203,6.835,0.444,10.246,0.703c-0.033-0.395-0.037-0.788-0.051-1.192c-1.66-0.108-3.32-0.207-4.979-0.324    c-0.024,0.251-0.03,0.504-0.054,0.746c-0.041,0.372-0.543,0.323-0.569-0.034C52.523,68.936,52.52,68.674,52.507,68.421z"
         id="path28" /><path
         fill="none"
         d="M74.585,63.612c-1.204-0.062-2.408-0.124-3.621-0.187c-0.001,0.496-0.023,1.01-0.034,1.514    c1.212,0.091,2.422,0.2,3.643,0.291C74.567,64.696,74.581,64.154,74.585,63.612z"
         id="path30" /><path
         fill="none"
         d="M69.703,70.932c0.01-0.477,0.019-0.954,0.029-1.43c-1.577-0.084-3.153-0.178-4.72-0.271    c0.002,0.431,0.014,0.871,0.016,1.302C66.593,70.662,68.138,70.801,69.703,70.932z"
         id="path32" /><path
         fill="none"
         d="M64.913,64.44c1.659,0.127,3.307,0.272,4.965,0.408c0.02-0.495,0.04-0.99,0.07-1.484    c-1.689-0.091-3.378-0.173-5.067-0.273C64.891,63.541,64.902,63.991,64.913,64.44z"
         id="path34" /><path
         fill="none"
         d="M64.99,67.862c1.585,0.113,3.178,0.236,4.762,0.358c0.016-0.739,0.05-1.467,0.075-2.205    c-1.623-0.096-3.247-0.174-4.879-0.281C64.971,66.447,64.976,67.15,64.99,67.862z"
         id="path36" /><path
         fill="none"
         d="M75.329,71.406c1.853,0.157,3.717,0.305,5.56,0.471c-0.123-0.606-0.255-1.213-0.379-1.82    c-1.718-0.074-3.444-0.167-5.161-0.26C75.346,70.331,75.333,70.873,75.329,71.406z"
         id="path38" /><path
         fill="none"
         d="M21.571,51.407c0.028,0.002,0.056,0.003,0.093,0.006c0.126-0.067,0.284-0.058,0.411,0.015    c0.056,0.003,0.103,0.006,0.159,0c4.974,0.099,9.95,0.479,14.933,0.907c5.384,0.451,10.763,0.968,16.139,1.241    c10.555,0.534,21.103,0.721,31.668,0.769c1.35-14.981,2.478-30.5,1.8-45.545c-0.047,0.007-0.086,0.023-0.142,0.02    c-7.78-0.294-15.626-0.424-23.498-0.583C48.877,7.94,34.559,7.557,20.53,5.946c1.363,14.852,1.099,30.001,1.458,44.906    C21.997,51.17,21.808,51.356,21.571,51.407z M24.432,8.799c0.001-0.019,0.002-0.037,0.004-0.065    c-0.007-0.356,0.576-0.396,0.621-0.047c0.007,0.047,0.014,0.085,0.011,0.122c12.628,1.724,25.343,1.198,38.024,1.4    c6.873,0.119,13.743,0.443,20.572,1.467c0.148,0.028,0.256,0.1,0.335,0.188c0.063,0.041,0.115,0.11,0.119,0.204    c0.007,0.038,0.005,0.075,0.003,0.112c0.007,0.038,0.014,0.076,0.003,0.113c0.644,12.619-0.52,25.58-1.837,38.129    c-0.031,0.363-0.331,0.523-0.619,0.497c-0.028,0.307-0.252,0.612-0.645,0.608c-14.333,0.037-29.224,0.312-43.701-1.017    c-3.817-0.358-7.618-0.818-11.363-1.425c-0.204-0.031-0.249-0.221-0.175-0.357c-0.302,0.048-0.647-0.132-0.643-0.525    c0.085-12.922-0.443-25.768-0.686-38.672c-0.009-0.001-0.009-0.001-0.018-0.01C24.066,9.451,24.135,8.922,24.432,8.799z"
         id="path40" /><path
         fill="none"
         d="M26.195,48.266c-0.009,0.149-0.062,0.258-0.151,0.337c18.347-0.004,36.669,1.834,55.055,1.645    c0.037,0.002,0.055,0.013,0.083,0.014c1.165-12.512,1.433-25.039,2.373-37.545c-19.354-2.901-39.145,0.602-58.388-3.06    C26.686,22.366,26.757,35.503,26.195,48.266z M81.492,16.095c-1.325,0.08-2.676-0.028-4.003-0.06    c-0.384-0.004-0.34-0.582,0.035-0.588c1.332-0.042,2.687-0.158,4.012-0.098C82.031,15.369,81.961,16.077,81.492,16.095z     M75.736,13.713c1.803,0.06,3.607,0.102,5.416,0.219c0.41,0.024,0.373,0.659-0.038,0.644c-1.81-0.098-3.607-0.271-5.404-0.424    C75.422,14.124,75.447,13.695,75.736,13.713z M30.667,45.461c1.714,0.149,3.447,0.271,5.157,0.485    c0.418,0.053,0.38,0.697-0.039,0.653c-1.722-0.168-3.438-0.42-5.147-0.652C30.332,45.9,30.351,45.433,30.667,45.461z     M27.544,45.884c2.426,0.453,4.841,0.924,7.267,1.368c0.37,0.069,0.364,0.649-0.036,0.606c-2.438-0.248-4.991-0.756-7.314-1.511    C27.212,46.267,27.285,45.831,27.544,45.884z"
         id="path42" /><path
         fill="none"
         d="M79.436,66.568c-1.353-0.071-2.706-0.152-4.058-0.232c0,0.786-0.009,1.563-0.018,2.348    c1.658,0.136,3.317,0.263,4.965,0.417c-0.168-0.955-0.326-1.91-0.438-2.862C79.838,66.423,79.688,66.583,79.436,66.568z"
         id="path44" /><path
         fill="none"
         d="M33.121,63.383c-1.601-0.151-3.211-0.303-4.812-0.455c-0.362,0.896-0.724,1.782-1.067,2.679    c1.661,0.08,3.333,0.151,4.994,0.231C32.509,65.013,32.811,64.198,33.121,63.383z"
         id="path46" /><path
         fill="none"
         d="M74.557,66.287c-1.222-0.073-2.435-0.135-3.657-0.208c-0.025,0.738-0.042,1.486-0.076,2.223    c1.249,0.093,2.487,0.213,3.735,0.316C74.558,67.841,74.557,67.064,74.557,66.287z"
         id="path48" /><path
         fill="none"
         d="M74.634,59.159c-1.216-0.016-2.424-0.013-3.639-0.038c0,1.095,0,2.2-0.018,3.294    c1.212,0.081,2.415,0.153,3.619,0.225C74.609,61.479,74.612,60.318,74.634,59.159z"
         id="path50" /><path
         fill="none"
         d="M74.575,69.761c-1.269-0.066-2.548-0.123-3.817-0.199c-0.029,0.485-0.048,0.971-0.077,1.446    c1.304,0.115,2.607,0.23,3.912,0.336C74.587,70.819,74.581,70.286,74.575,69.761z"
         id="path52" /><path
         fill="none"
         d="M78.943,62.897c0.616,0.037,0.56,0.979-0.057,0.951c-1.176-0.061-2.351-0.13-3.527-0.191    c-0.004,0.543,0.01,1.096,0.006,1.638c1.379,0.11,2.758,0.22,4.127,0.339c0.167,0.019,0.275,0.101,0.343,0.208    c-0.225-2.204-0.205-4.421,0.282-6.639c-0.009-0.001-0.009-0.001-0.019-0.001c-1.582,0-3.181-0.021-4.781-0.041    c0.024,1.172,0.019,2.351,0.034,3.522C76.546,62.755,77.748,62.835,78.943,62.897z"
         id="path54" /><path
         fill="none"
         d="M81.845,76.746c-0.221-1.324-0.488-2.65-0.775-3.968c-0.038,0.007-0.066,0.015-0.113,0.012    c-1.875-0.102-3.762-0.177-5.647-0.27c-0.017,1.075-0.015,2.143-0.042,3.218c-0.009,0.149-0.097,0.219-0.211,0.25    c2.205,0.225,4.411,0.44,6.614,0.693C81.736,76.692,81.79,76.714,81.845,76.746z"
         id="path56" /><path
         fill="none"
         d="M43.129,58.175c0.035-0.11,0.104-0.172,0.181-0.205c-0.884-0.081-1.77-0.143-2.654-0.233    c-0.245,0.809-0.489,1.609-0.743,2.418c0.867,0.061,1.733,0.131,2.6,0.201C42.706,59.619,42.908,58.892,43.129,58.175z"
         id="path58" /><path
         fill="none"
         d="M20.762,69.107c-0.027-0.011-0.036-0.03-0.063-0.041c-0.697,1.653-0.706,2.907,1.779,3.766    c0.431,0.147,0.912,0.241,1.432,0.31c0.306-1.217,0.65-2.423,1.011-3.619C23.535,69.384,22.148,69.255,20.762,69.107z"
         id="path60" /><path
         fill="none"
         d="M28.773,59.371c0.432-0.967,0.873-1.923,1.322-2.87c-1.272-0.179-2.553-0.358-3.814-0.554    c-0.41,1.071-0.848,2.14-1.277,3.21c0.038-0.016,0.077-0.042,0.124-0.039C26.35,59.189,27.562,59.28,28.773,59.371z"
         id="path62" /><path
         fill="none"
         d="M31.877,70.133c-0.348,0.972-0.695,1.934-1.035,2.915c0.459-0.01,0.891-0.022,1.292-0.007    c0.757,0.017,1.503,0.061,2.26,0.088c0.316-0.908,0.623-1.816,0.929-2.716C34.169,70.326,33.024,70.22,31.877,70.133z"
         id="path64" /><path
         fill="none"
         d="M25.75,69.6c-0.436,1.2-0.854,2.402-1.273,3.612c1.845,0.147,4.019-0.051,5.887-0.137    c0.172-1.001,0.4-2.007,0.647-3.013C29.25,69.921,27.499,69.77,25.75,69.6z"
         id="path66" /><path
         fill="none"
         d="M27.313,62.832c-1.228-0.12-2.448-0.239-3.666-0.377c-0.404,0.978-0.809,1.955-1.213,2.923    c1.279,0.057,2.557,0.124,3.836,0.181C26.606,64.643,26.95,63.737,27.313,62.832z"
         id="path68" /><path
         fill="none"
         d="M28.481,60.037c-1.125-0.132-2.259-0.256-3.383-0.407c-0.121-0.017-0.172-0.095-0.205-0.181    c-0.34,0.841-0.699,1.681-1.049,2.521c1.252,0.046,2.503,0.102,3.754,0.158C27.883,61.424,28.177,60.73,28.481,60.037z"
         id="path70" /><path
         fill="none"
         d="M26.003,66.283c-1.266-0.113-2.543-0.217-3.809-0.329c-0.401,0.922-0.864,1.774-1.237,2.547    c1.433-0.018,2.865-0.017,4.298-0.016C25.495,67.75,25.744,67.016,26.003,66.283z"
         id="path72" /><path
         fill="none"
         d="M91.493,88.908c-1.43-5.542-2.87-11.085-3.854-16.723c-0.965-5.496-1.33-11.003-3.139-16.315    c-1.48,0.015-2.959,0.021-4.448,0.026c-19.094,0.128-39.203,0.009-57.843-3.571c-2.613,11.04-8.543,21.349-13.806,31.314    c11.723,0.407,23.443,1.197,35.167,2.073C59.533,86.905,75.508,88.229,91.493,88.908z M75.698,77.794    c1.498,0.145,3.069,0.173,4.538,0.504c0.36,0.078,0.216,0.612-0.121,0.611c-1.468-0.022-2.983-0.365-4.451-0.555    C75.321,78.305,75.345,77.754,75.698,77.794z M80.736,80.443c-1.649-0.126-3.281-0.392-4.916-0.611    c-0.417-0.062-0.389-0.706,0.039-0.662c1.638,0.154,3.288,0.27,4.921,0.517C81.254,79.762,81.229,80.482,80.736,80.443z     M80.054,56.177c1.019,0.023,2.037,0.065,3.063,0.117c0.401,0.024,0.363,0.658-0.037,0.625c-0.708-0.051-1.417-0.103-2.124-0.164    c-0.317-0.028-0.624-0.056-0.931-0.083C79.708,56.643,79.736,56.177,80.054,56.177z M76.707,56.886    c1.364,0.044,2.817,0.018,4.223,0.139c0.559,0.043,1.107,0.113,1.653,0.22c0.352,0.068,0.324,0.525-0.033,0.55    c-0.762,0.058-1.556,0.038-2.34-0.008c-1.184-0.08-2.392-0.226-3.537-0.332C76.311,57.414,76.343,56.873,76.707,56.886z     M19.475,82.866c-2.323,0.021-4.839-0.325-7.099-0.881c-0.258-0.062-0.168-0.478,0.083-0.454c2.346,0.224,4.72,0.43,7.052,0.728    C19.902,82.301,19.869,82.861,19.475,82.866z M20.011,81.727c-1.874-0.13-3.772-0.168-5.638-0.42    c-0.297-0.046-0.272-0.465,0.028-0.466c1.883-0.028,3.773,0.149,5.648,0.252C20.46,81.108,20.422,81.752,20.011,81.727z     M24.15,74.148c-0.081,0.257-0.385,0.174-0.438-0.035c-1.823-0.034-3.637-0.067-5.452-0.081c-0.384-0.004-0.712-0.464-0.55-0.819    c2.624-6.031,5.184-12.095,8.127-17.976c0.105-0.2,0.328-0.168,0.48-0.046c1.425,0.113,2.851,0.226,4.276,0.339    c0.217-0.193,0.56-0.135,0.717,0.061c3.009,0.244,6.037,0.481,9.037,0.715c0.155-0.094,0.36-0.072,0.494,0.039    c13.082,1.021,26.116,1.89,39.319,1.823c0.009,0.001,0.019,0.001,0.028,0.002c0.177,0.01,0.293,0.102,0.362,0.209    c0.43-0.152,1.053,0.24,0.914,0.841c-1.494,6.23,1.432,11.973,1.335,18.164c-0.002,0.356-0.43,0.471-0.674,0.316    c-0.103,0.162-0.278,0.274-0.529,0.24c-3.812-0.442-7.627-0.828-11.443-1.195c-0.09,0.098-0.248,0.079-0.335-0.029    c-2.895-0.275-5.8-0.532-8.698-0.761c-12.297-0.993-24.617-1.604-36.959-1.833C24.16,74.13,24.151,74.139,24.15,74.148z     M37.375,83.621c-0.308-0.009-0.592-0.269-0.458-0.636c0.314-0.871,0.838-1.663,1.28-2.47c0.545-0.979,0.99-2.001,1.48-3.01    c0.02-0.027,0.049-0.035,0.069-0.061c-0.016-0.198,0.1-0.415,0.371-0.409c6.945,0.16,13.9,0.639,20.829,1.079    c0.699,0.051,0.614,1.169-0.063,1.063c0,0,0,0-0.009-0.001c0.593,1.514,1.018,3.337,1.213,4.949    c0.465,0.205,0.341,1.031-0.277,1.032c-5.939,0.077-12.143,0.195-18.18-0.295c-2.049-0.169-4.066-0.41-6.059-0.735    C37.282,84.084,37.225,83.781,37.375,83.621z"
         id="path74" /><path
         fill="none"
         d="M8.316,84.467c-0.068,0.511-0.127,1.031-0.148,1.545c-0.029,0.644,0.027,1.275,0.045,1.912    c27.772,0.959,55.563,3.969,83.305,5.759c0.011-1.123,0.021-2.245,0.022-3.359C63.971,89.256,35.606,88.655,8.316,84.467z"
         id="path76" /><path
         fill="none"
         d="M26.162,68.483c1.741,0.01,3.489,0.039,5.238,0.068c0.156-0.58,0.322-1.17,0.506-1.748    c-1.648-0.145-3.296-0.29-4.954-0.435C26.686,67.072,26.42,67.777,26.162,68.483z"
         id="path78" /><path
         fill="none"
         d="M59.91,79.158c0.001-0.009,0.001-0.019,0.002-0.028c-6.503-0.359-13.016-0.708-19.505-1.31    c-0.623,1.826-1.403,4.073-2.598,5.602c-0.031,0.045-0.06,0.062-0.099,0.088c7.771-0.343,15.733,0.346,23.518,0.556    C60.617,82.523,60.088,80.722,59.91,79.158z"
         id="path80" /><path
         fill="none"
         d="M69.744,75.436c-0.021-1.059-0.052-2.119-0.054-3.186c-1.559-0.074-3.108-0.157-4.667-0.231    c-0.001,0.805-0.002,1.601-0.011,2.396c-0.002,0.196-0.186,0.298-0.345,0.288c-0.131-0.008-0.247-0.09-0.257-0.24    c-0.073-0.819-0.127-1.646-0.19-2.473c-9.326-0.424-18.671-0.848-27.973-1.514c-0.372,0.905-0.744,1.8-1.142,2.675    c2.223,0.076,4.456,0.153,6.678,0.257c7.636,0.36,15.252,0.888,22.86,1.556C66.338,75.112,68.041,75.27,69.744,75.436z"
         id="path82" /><path
         fill="none"
         d="M42.228,61.51c-0.884-0.081-1.779-0.143-2.673-0.234c-0.14,0.46-0.307,0.908-0.456,1.368    c0.952,0.047,1.894,0.113,2.845,0.169C42.036,62.378,42.128,61.944,42.228,61.51z"
         id="path84" /><path
         fill="none"
         d="M38.457,61.173c-1.042-0.099-2.075-0.217-3.116-0.326c-0.2,0.522-0.399,1.043-0.608,1.574    c1.083,0.046,2.166,0.091,3.239,0.155C38.139,62.109,38.289,61.64,38.457,61.173z"
         id="path86" /><path
         fill="none"
         d="M37.542,63.814c-1.071-0.092-2.15-0.212-3.22-0.313c-0.309,0.796-0.61,1.593-0.91,2.398    c1.12,0.048,2.25,0.096,3.37,0.154C37.032,65.31,37.292,64.558,37.542,63.814z"
         id="path88" /><path
         fill="none"
         d="M41.315,67.587c-1.276-0.104-2.562-0.199-3.839-0.303c-0.168,0.467-0.346,0.944-0.524,1.41    c1.429,0.057,2.856,0.142,4.284,0.208C41.244,68.462,41.289,68.025,41.315,67.587z"
         id="path90" /><path
         fill="none"
         d="M36.405,67.192c-1.127-0.095-2.244-0.199-3.362-0.294c-0.202,0.559-0.413,1.118-0.615,1.676    c1.159,0.031,2.319,0.044,3.487,0.076C36.076,68.164,36.245,67.678,36.405,67.192z"
         id="path92" /><path
         fill="none"
         d="M41.697,64.146c-1.006-0.079-2.013-0.157-3.018-0.245c-0.25,0.743-0.5,1.477-0.769,2.22    c1.157,0.059,2.314,0.128,3.48,0.198C41.462,65.583,41.579,64.869,41.697,64.146z"
         id="path94" /><path
         fill="none"
         d="M34.674,59.778c0.407-0.865,0.841-1.71,1.284-2.545c-1.646-0.182-3.282-0.382-4.916-0.601    c-0.44,0.938-0.86,1.868-1.271,2.807C31.411,59.556,33.043,59.662,34.674,59.778z"
         id="path96" /><path
         fill="none"
         d="M34.234,60.725c-1.6-0.17-3.188-0.386-4.787-0.575c-0.283,0.666-0.548,1.343-0.831,2.01    c1.643,0.07,3.269,0.129,4.912,0.198C33.758,61.811,33.987,61.263,34.234,60.725z"
         id="path98" /><path
         fill="none"
         d="M38.85,60.073c0.291-0.806,0.601-1.612,0.901-2.408c-0.987-0.096-1.98-0.23-2.966-0.336    c-0.359,0.84-0.7,1.69-1.04,2.531C36.781,59.931,37.815,60.002,38.85,60.073z"
         id="path100" /><path
         fill="none"
         d="M47.696,61.956c-1.565-0.13-3.131-0.242-4.686-0.382c-0.091,0.425-0.182,0.86-0.264,1.285    c1.632,0.097,3.255,0.203,4.887,0.309C47.649,62.759,47.673,62.358,47.696,61.956z"
         id="path102" /><path
         fill="none"
         d="M47.418,68.052c-1.817-0.136-3.634-0.272-5.451-0.418c-0.063,0.436-0.126,0.863-0.18,1.3    c1.858,0.082,3.722,0.212,5.588,0.314C47.38,68.855,47.404,68.454,47.418,68.052z"
         id="path104" /><path
         fill="none"
         d="M47.558,64.597c-1.687-0.128-3.374-0.247-5.06-0.385c-0.127,0.713-0.244,1.427-0.352,2.141    c1.773,0.096,3.545,0.211,5.317,0.316C47.495,65.979,47.517,65.288,47.558,64.597z"
         id="path106" /><path
         d="M92.801,89.276c0.082-0.126,0.13-0.292,0.076-0.492c-1.517-5.969-3.024-11.956-4.039-18.035    c-0.863-5.162-1.237-10.202-3.491-14.96c0.356-0.157,0.511-0.569,0.438-0.91c0.155-0.084,0.284-0.217,0.325-0.43    c1.46-7.87,1.321-16.078,1.683-24.051c0.337-7.394,1.1-14.874,0.256-22.245c-0.051-0.396-0.436-0.541-0.777-0.477    c-0.101-0.184-0.281-0.316-0.552-0.323C64.809,6.52,42.435,4.356,20.51,5.186c-0.066,0.005-0.122,0.002-0.188,0.008    c-0.084-0.005-0.143,0.038-0.201,0.082c-0.224-0.004-0.466,0.122-0.472,0.384c-0.562,14.962,0.575,30.157,1.061,45.116    c0.011,0.441,0.4,0.67,0.748,0.644c0.028,0.002,0.056,0.003,0.085-0.014c-0.029,0.017-0.057,0.015-0.085,0.014    c-0.286,0.086-0.385,0.492-0.171,0.664C17.336,62.8,12.288,72.769,7.197,82.978c-0.192,0.4-0.009,0.786,0.279,0.981    c-0.006,0.093,0.017,0.188,0.068,0.266c-0.415,1.305-0.589,2.829-0.301,4.12c0.08,0.389,0.552,0.473,0.807,0.282    c0.028,0.002,0.047,0.003,0.074,0.014c27.705,3.501,55.922,4.542,83.775,6.358c0.634,0.047,0.828-0.7,0.513-1.074    c0.002-0.028,0.013-0.055,0.014-0.083c0.242-1.24,0.345-2.488,0.289-3.755C92.897,89.862,92.935,89.527,92.801,89.276z     M20.53,5.946c14.029,1.611,28.347,1.995,42.605,2.29c7.872,0.159,15.718,0.289,23.498,0.583c0.056,0.003,0.094-0.013,0.142-0.02    c0.678,15.046-0.451,30.564-1.8,45.545c-10.565-0.048-21.113-0.235-31.668-0.769c-5.376-0.273-10.755-0.789-16.139-1.241    c-4.983-0.427-9.959-0.808-14.933-0.907c-0.057,0.006-0.103,0.003-0.159,0c-0.127-0.073-0.285-0.082-0.411-0.015    c-0.037-0.002-0.065-0.004-0.093-0.006c0.237-0.051,0.426-0.237,0.417-0.556C21.629,35.947,21.893,20.798,20.53,5.946z     M22.209,52.325c18.64,3.58,38.749,3.699,57.843,3.571c1.489-0.005,2.968-0.011,4.448-0.026    c1.809,5.312,2.174,10.819,3.139,16.315c0.985,5.638,2.424,11.18,3.854,16.723c-15.985-0.679-31.96-2.003-47.924-3.196    c-11.724-0.875-23.443-1.666-35.167-2.073C13.666,73.674,19.596,63.365,22.209,52.325z M8.213,87.925    c-0.018-0.638-0.074-1.268-0.045-1.912c0.021-0.514,0.08-1.034,0.148-1.545c27.29,4.188,55.655,4.789,83.224,5.857    c-0.001,1.114-0.011,2.237-0.022,3.359C63.776,91.893,35.986,88.884,8.213,87.925z"
         id="path108" /><path
         d="m 69.818,80.393505 c 0.087,0.126379 0.245,0.148612 0.335,0.03394 3.816,0.429454 7.631,0.881141 11.443,1.398359 0.251,0.03978 0.426,-0.09128 0.529,-0.280842 0.244,0.181377 0.672,0.0468 0.674,-0.369776 0.097,-7.244545 -2.829,-13.966023 -1.335,-21.255035 0.139,-0.702104 -0.484,-1.161982 -0.914,-0.984116 -0.069,-0.125209 -0.185,-0.231694 -0.362,-0.244566 -0.009,-0.0012 -0.019,-0.0012 -0.028,-0.0023 -13.203,0.07841 -26.237,-0.938479 -39.319,-2.133226 -0.134,-0.129889 -0.338,-0.154463 -0.494,-0.04563 -3,-0.274991 -6.028,-0.551152 -9.037,-0.836675 -0.157,-0.230524 -0.5,-0.297223 -0.717,-0.07139 -1.425,-0.132231 -2.851,-0.264459 -4.276,-0.396689 -0.152,-0.141591 -0.375,-0.179037 -0.48,0.05382 -2.943,6.881791 -5.503,13.977726 -8.127,21.035043 -0.162,0.415412 0.167,0.953692 0.55,0.958372 1.815,0.01638 3.629,0.05499 5.452,0.09479 0.053,0.244567 0.357,0.34286 0.438,0.04096 0.001,-0.01053 0.01,-0.02106 0.011,-0.03159 12.343,0.266798 24.662,0.981775 36.959,2.144928 2.898,0.26914 5.803,0.569873 8.698,0.891671 z m -0.066,-9.939456 c -1.584,-0.14276 -3.177,-0.286692 -4.762,-0.418922 -0.014,-0.833163 -0.019,-1.655795 -0.042,-2.488959 1.632,0.124039 3.256,0.215313 4.879,0.328819 -0.025,0.862418 -0.059,1.714305 -0.075,2.579062 z m -0.02,1.498993 c -0.01,0.558174 -0.019,1.116346 -0.029,1.673349 -1.565,-0.152124 -3.11,-0.314777 -4.675,-0.468069 -0.003,-0.504346 -0.014,-1.019222 -0.016,-1.523568 1.567,0.11 3.143,0.219994 4.72,0.318288 z m 0.146,-5.444819 c -1.658,-0.159143 -3.306,-0.328818 -4.965,-0.47743 -0.011,-0.526579 -0.021,-1.053157 -0.032,-1.579734 1.688,0.117017 3.378,0.212971 5.067,0.319458 -0.03,0.579235 -0.05,1.158471 -0.07,1.737706 z m 10.633,6.096606 c 0.123,0.709125 0.255,1.419421 0.379,2.129716 -1.844,-0.194248 -3.707,-0.367435 -5.56,-0.551152 0.004,-0.623702 0.017,-1.257937 0.021,-1.882809 1.716,0.10766 3.442,0.217652 5.16,0.304245 z m -0.187,-1.119856 c -1.648,-0.180208 -3.306,-0.32882 -4.965,-0.487963 0.009,-0.919757 0.018,-1.827811 0.018,-2.747569 1.353,0.09362 2.705,0.188399 4.058,0.271482 0.252,0.01755 0.402,-0.169677 0.45,-0.384987 0.113,1.114005 0.271,2.23152 0.439,3.349037 z m -0.226,-11.58238 c 0.009,0.0012 0.009,0.0012 0.019,0.0012 -0.488,2.595446 -0.507,5.189721 -0.282,7.768783 -0.069,-0.125209 -0.176,-0.219992 -0.343,-0.243395 -1.369,-0.139253 -2.748,-0.26797 -4.127,-0.396689 0.004,-0.635405 -0.01,-1.28251 -0.006,-1.916745 1.176,0.07139 2.351,0.152122 3.527,0.223502 0.616,0.03159 0.672,-1.070708 0.057,-1.112835 -1.194,-0.07255 -2.397,-0.167333 -3.591,-0.250417 -0.015,-1.370273 -0.01,-2.749908 -0.034,-4.121351 1.599,0.0234 3.199,0.0468 4.78,0.04799 z m -4.83,19.347652 c 0.026,-1.257936 0.024,-2.506511 0.042,-3.765618 1.885,0.10883 3.772,0.196588 5.647,0.315946 0.047,0.0035 0.075,-0.0059 0.113,-0.01404 0.287,1.542287 0.554,3.09511 0.775,4.643249 -0.054,-0.03627 -0.109,-0.06203 -0.174,-0.07841 -2.203,-0.296053 -4.409,-0.547641 -6.614,-0.810929 0.114,-0.03393 0.202,-0.115851 0.211,-0.290204 z M 70.995,59.805469 c 1.215,0.02925 2.423,0.02575 3.639,0.04446 -0.022,1.356232 -0.026,2.714804 -0.038,4.072206 -1.203,-0.08426 -2.407,-0.167335 -3.619,-0.26329 0.019,-1.279 0.019,-2.572042 0.018,-3.853379 z m -0.031,5.036427 c 1.213,0.07372 2.417,0.146272 3.621,0.218823 -0.004,0.635404 -0.018,1.269639 -0.012,1.894511 -1.221,-0.106478 -2.431,-0.235204 -3.643,-0.340521 0.011,-0.590937 0.033,-1.192407 0.034,-1.772813 z M 70.9,67.948707 c 1.222,0.08543 2.435,0.157974 3.657,0.243397 0.001,0.909225 0.001,1.81845 0.002,2.727674 -1.248,-0.119357 -2.486,-0.260948 -3.735,-0.369775 0.034,-0.862418 0.051,-1.737708 0.076,-2.601296 z m -0.142,4.075717 c 1.269,0.08776 2.548,0.155631 3.817,0.232863 0.006,0.614341 0.012,1.238044 0.018,1.852384 -1.304,-0.124037 -2.608,-0.258607 -3.912,-0.393177 0.029,-0.555832 0.048,-1.124537 0.077,-1.69207 z m -0.153,3.199254 c 1.335,0.07139 2.66,0.152122 4.004,0.223504 0.011,1.249745 0.013,2.508851 0.034,3.759767 0.002,0.153293 0.081,0.246906 0.172,0.307755 -1.498,-0.181376 -2.995,-0.383817 -4.493,-0.553491 0.1,-1.242724 0.201,-2.48428 0.283,-3.737535 z m -0.386,-15.42757 c -0.082,1.254426 -0.156,2.519384 -0.221,3.796043 -1.715,-0.141592 -3.431,-0.27148 -5.146,-0.413072 -0.034,-1.174854 -0.068,-2.348538 -0.112,-3.512862 1.832,0.05033 3.656,0.0901 5.479,0.129891 z m -10.89,-0.298395 c 1.532,0.0632 3.066,0.09245 4.599,0.133399 -0.021,1.159644 -0.033,2.308753 -0.036,3.469565 -1.566,-0.131059 -3.132,-0.262118 -4.698,-0.393177 0.045,-1.06954 0.09,-2.139078 0.135,-3.209787 z m -0.194,4.554316 c 1.585,0.121698 3.171,0.221163 4.757,0.331158 10e-4,0.525409 0.013,1.041455 0.024,1.557502 -1.621,-0.146272 -3.233,-0.290203 -4.845,-0.435305 0.015,-0.48211 0.04,-0.973584 0.064,-1.453355 z m -0.127,3.057664 c 1.641,0.125208 3.283,0.239886 4.924,0.365094 0.014,0.822633 0.038,1.645264 0.071,2.469067 -1.697,-0.140421 -3.383,-0.290202 -5.08,-0.430624 0.031,-0.796888 0.053,-1.605479 0.085,-2.403537 z m -0.193,5.45301 c 0.014,-0.458708 0.037,-0.917416 0.051,-1.376124 1.734,0.132229 3.46,0.251587 5.194,0.383817 0.012,0.493813 0.024,0.998158 0.055,1.504842 -1.77,-0.167335 -3.53,-0.34403 -5.301,-0.500834 z M 58.619,59.459097 c -0.147,1.041455 -0.266,2.106313 -0.348,3.174681 -1.631,-0.146271 -3.253,-0.27031 -4.884,-0.416582 -0.004,-1.01922 -0.019,-2.02791 -0.024,-3.03543 1.745,0.11 3.501,0.188398 5.256,0.277331 z m -0.426,4.516871 c -0.025,0.491472 -0.059,0.971244 -0.083,1.451015 -1.575,-0.13106 -3.149,-0.284351 -4.725,-0.406049 0.005,-0.470411 0.001,-0.931459 0.006,-1.40187 1.603,0.133401 3.199,0.234036 4.802,0.356904 z m -4.846,2.707781 c 1.585,0.121699 3.152,0.230525 4.727,0.361584 -0.003,0.799229 -0.016,1.598457 0,2.398857 -1.604,-0.122868 -3.206,-0.266799 -4.81,-0.389668 0.04,-0.786357 0.071,-1.583245 0.083,-2.370773 z m -0.241,4.933453 c 0.024,-0.283182 0.029,-0.578066 0.054,-0.872949 1.659,0.136911 3.32,0.252757 4.979,0.379136 0.013,0.47158 0.018,0.932628 0.051,1.394847 -3.411,-0.303075 -6.832,-0.585086 -10.246,-0.822632 0.042,-0.457538 0.065,-0.915076 0.098,-1.384315 1.491,0.13691 2.973,0.250417 4.465,0.376796 0.013,0.297224 0.016,0.603809 0.03,0.889331 0.025,0.418922 0.528,0.475091 0.569,0.03978 z m -4.943,-2.928945 c 0.05,-0.807419 0.091,-1.604308 0.141,-2.410557 1.37,0.117017 2.741,0.212972 4.111,0.329988 -0.003,0.799229 0.003,1.599628 0.019,2.389496 -1.427,-0.09947 -2.844,-0.209462 -4.271,-0.308927 z m 0.882,-9.621167 c 0.031,-0.05265 0.024,-0.09712 0.036,-0.150954 1.165,0.09245 2.342,0.152123 3.508,0.222334 -0.032,0.994648 -0.073,1.988124 -0.105,2.994474 -1.361,-0.117017 -2.721,-0.232865 -4.082,-0.360413 0.073,-1.080071 0.228,-2.099292 0.643,-2.705441 z m 3.404,4.475915 c -0.005,0.459877 -0.019,0.930286 -0.033,1.388995 -1.352,-0.105308 -2.703,-0.231694 -4.055,-0.33701 -0.006,-0.438815 -0.01,-0.910395 -0.003,-1.413569 1.36,0.127548 2.73,0.244565 4.091,0.361584 z M 48.316,58.86348 c -0.543,0.739549 -0.597,1.809087 -0.603,2.849372 -1.472,-0.13574 -2.954,-0.259779 -4.426,-0.395519 0.162,-0.788698 0.323,-1.565692 0.522,-2.352048 0.058,-0.225844 -0.055,-0.397861 -0.2,-0.484453 1.564,0.152123 3.141,0.251587 4.707,0.382648 z m -21.075,8.534075 c 0.344,-1.049645 0.705,-2.086419 1.067,-3.134894 1.601,0.176695 3.211,0.354562 4.812,0.532429 -0.311,0.953691 -0.612,1.907383 -0.886,2.873945 -1.66,-0.09479 -3.331,-0.177865 -4.993,-0.27148 z m 4.666,1.397188 c -0.184,0.67753 -0.35,1.366762 -0.506,2.045464 -1.749,-0.03394 -3.497,-0.06787 -5.238,-0.07958 0.257,-0.824973 0.524,-1.649944 0.79,-2.474917 1.657,0.170845 3.306,0.34052 4.954,0.509025 z m -3.29,-5.431947 c 0.283,-0.780505 0.548,-1.571543 0.831,-2.352048 1.599,0.221163 3.187,0.473921 4.787,0.672849 -0.247,0.629554 -0.476,1.270808 -0.706,1.912064 -1.644,-0.08191 -3.269,-0.150952 -4.912,-0.232865 z m 4.426,5.544285 c 1.118,0.111158 2.235,0.231693 3.362,0.34403 -0.16,0.569874 -0.329,1.138578 -0.489,1.707284 -1.168,-0.03744 -2.328,-0.05266 -3.487,-0.08893 0.201,-0.654128 0.413,-1.308256 0.614,-1.962384 z m 0.369,-1.167834 c 0.301,-0.943161 0.601,-1.874619 0.91,-2.806077 1.07,0.118187 2.149,0.258608 3.22,0.366264 -0.25,0.869439 -0.51,1.750581 -0.76,2.620018 -1.12,-0.06787 -2.25,-0.124037 -3.37,-0.180205 z m 1.32,-4.071034 c 0.209,-0.620193 0.409,-1.231023 0.608,-1.841855 1.042,0.12755 2.074,0.26446 3.116,0.381477 -0.168,0.546472 -0.318,1.095283 -0.486,1.641753 -1.071,-0.07371 -2.155,-0.127548 -3.238,-0.181375 z m 2.744,5.689383 c 1.276,0.121698 2.562,0.232865 3.839,0.354564 -0.026,0.512536 -0.071,1.025072 -0.078,1.538778 -1.428,-0.07724 -2.855,-0.176697 -4.284,-0.243396 0.177,-0.545301 0.355,-1.102304 0.523,-1.649946 z m 0.434,-1.360912 c 0.269,-0.868268 0.518,-1.727176 0.769,-2.597785 1.006,0.102968 2.012,0.194248 3.018,0.286694 -0.118,0.846034 -0.235,1.681539 -0.307,2.541616 -1.166,-0.07958 -2.323,-0.160313 -3.48,-0.230525 z M 39.1,63.92799 c 0.149,-0.537109 0.316,-1.062517 0.456,-1.600797 0.893,0.106479 1.788,0.179037 2.673,0.273821 -0.101,0.507855 -0.192,1.01571 -0.283,1.524737 -0.953,-0.06552 -1.894,-0.141592 -2.846,-0.197761 z m 2.867,5.841508 c 1.817,0.169676 3.634,0.329989 5.451,0.489133 -0.014,0.470409 -0.038,0.939649 -0.043,1.399527 -1.866,-0.119357 -3.731,-0.27031 -5.588,-0.367434 0.054,-0.511365 0.117,-1.01103 0.18,-1.521226 z m 0.179,-1.498993 c 0.108,-0.835503 0.225,-1.671008 0.352,-2.505342 1.686,0.161485 3.373,0.300735 5.06,0.450517 -0.041,0.80742 -0.063,1.61718 -0.095,2.4246 -1.772,-0.124038 -3.544,-0.257438 -5.317,-0.369775 z m 0.601,-4.088587 c 0.082,-0.498494 0.173,-1.006349 0.264,-1.503673 1.555,0.162655 3.121,0.293713 4.686,0.447007 -0.024,0.469239 -0.048,0.938479 -0.063,1.419421 -1.632,-0.125209 -3.255,-0.249248 -4.887,-0.362755 z m -2.092,-5.994799 c 0.884,0.105308 1.769,0.177867 2.654,0.27265 -0.077,0.03861 -0.146,0.11 -0.181,0.239886 -0.22,0.839014 -0.423,1.68973 -0.616,2.553318 -0.866,-0.08191 -1.733,-0.163824 -2.6,-0.235204 0.254,-0.947841 0.499,-1.883979 0.743,-2.83065 z m -0.903,-0.08426 c -0.3,0.932629 -0.61,1.874618 -0.901,2.817778 -1.035,-0.08308 -2.07,-0.166164 -3.104,-0.249247 0.34,-0.984115 0.681,-1.978763 1.04,-2.96171 0.985,0.124039 1.978,0.280843 2.965,0.393179 z m -8.71,-1.208789 c 1.634,0.256268 3.27,0.490302 4.916,0.703274 -0.443,0.977096 -0.877,1.965893 -1.284,2.978092 -1.631,-0.13574 -3.263,-0.259779 -4.904,-0.395518 0.412,-1.099964 0.833,-2.188225 1.272,-3.285848 z m -4.761,-0.80274 c 1.261,0.230525 2.542,0.439985 3.814,0.648277 -0.449,1.108154 -0.89,2.22684 -1.322,3.358399 -1.211,-0.106478 -2.423,-0.212972 -3.645,-0.297224 -0.047,-0.0035 -0.086,0.02691 -0.124,0.04563 0.429,-1.250915 0.867,-2.501831 1.277,-3.755087 z m -1.388,4.099119 c 0.032,0.10064 0.084,0.191909 0.205,0.211802 1.124,0.176695 2.258,0.321797 3.383,0.47626 -0.303,0.81093 -0.597,1.623032 -0.883,2.446834 -1.251,-0.06553 -2.502,-0.12989 -3.754,-0.184888 0.35,-0.982945 0.709,-1.965891 1.049,-2.950008 z m -1.246,3.517542 c 1.218,0.161485 2.437,0.300735 3.666,0.441156 -0.363,1.059007 -0.707,2.119185 -1.042,3.192234 -1.279,-0.06669 -2.557,-0.145101 -3.836,-0.211802 0.403,-1.133898 0.808,-2.278328 1.212,-3.421588 z m -1.453,4.093268 c 1.266,0.13223 2.543,0.253928 3.809,0.384987 -0.259,0.857738 -0.509,1.716645 -0.749,2.576723 -1.432,-0.0012 -2.864,-0.0023 -4.298,0.01873 0.374,-0.904544 0.837,-1.901532 1.238,-2.980432 z m 1.716,8.411208 c -0.52,-0.07958 -1.001,-0.189567 -1.432,-0.362754 -2.486,-1.005178 -2.477,-2.472576 -1.779,-4.406873 0.027,0.01287 0.036,0.0351 0.063,0.04798 1.386,0.173185 2.773,0.324138 4.159,0.486793 -0.361,1.399528 -0.704,2.810757 -1.011,4.234857 z m 0.567,0.08425 c 0.418,-1.41708 0.836,-2.822459 1.273,-4.226667 1.75,0.19893 3.501,0.374455 5.261,0.54179 -0.247,1.177195 -0.475,2.354391 -0.647,3.525734 -1.868,0.09829 -4.042,0.331159 -5.887,0.159143 z m 7.658,-0.20127 c -0.402,-0.01755 -0.833,-0.0035 -1.292,0.0082 0.339,-1.147939 0.687,-2.274817 1.035,-3.411056 1.146,0.10181 2.291,0.224674 3.447,0.327649 -0.306,1.051986 -0.613,2.115673 -0.929,3.178192 -0.758,-0.03159 -1.504,-0.08308 -2.261,-0.102979 z m 2.97,0.129891 c 0.398,-1.023903 0.77,-2.071209 1.142,-3.130217 9.302,0.778166 18.647,1.275491 27.973,1.771645 0.063,0.967733 0.117,1.935467 0.19,2.893839 0.01,0.175526 0.127,0.27148 0.257,0.280842 0.159,0.01053 0.342,-0.10766 0.345,-0.337011 0.01,-0.930288 0.01,-1.861746 0.011,-2.803736 1.559,0.0866 3.108,0.183717 4.667,0.27031 0.002,1.248576 0.033,2.48896 0.054,3.728175 -1.703,-0.19542 -3.407,-0.379137 -5.102,-0.552323 -7.608,-0.781676 -15.224,-1.399528 -22.86,-1.82079 -2.221,-0.121699 -4.454,-0.211803 -6.677,-0.300734 z"
         id="path110"
         inkscape:connector-curvature="0"
         style="stroke-width:1.08174574" /><path
         d="M80.024,56.671c0.307,0.028,0.615,0.055,0.931,0.083c0.708,0.061,1.416,0.112,2.124,0.164    c0.401,0.033,0.438-0.601,0.037-0.625c-1.027-0.052-2.044-0.093-3.063-0.117C79.736,56.177,79.708,56.643,80.024,56.671z"
         id="path112" /><path
         d="M76.673,57.455c1.145,0.106,2.353,0.252,3.537,0.332c0.784,0.047,1.578,0.066,2.34,0.008    c0.357-0.026,0.384-0.483,0.033-0.55c-0.546-0.107-1.094-0.177-1.653-0.22c-1.406-0.121-2.859-0.095-4.223-0.139    C76.343,56.873,76.311,57.414,76.673,57.455z"
         id="path114" /><path
         d="m 80.039475,84.559881 c -1.633,-0.247 -3.283,-0.364 -4.921,-0.517 -0.428,-0.044 -0.457,0.6 -0.039,0.662 1.634,0.219 3.266,0.484 4.916,0.611 0.492,0.039 0.517,-0.681 0.044,-0.756 z"
         id="path116"
         inkscape:connector-curvature="0" /><path
         d="M24.436,9.52c0.009,0.01,0.009,0.01,0.018,0.01c0.244,12.904,0.771,25.75,0.686,38.672    c-0.005,0.393,0.34,0.573,0.643,0.525c-0.074,0.136-0.029,0.326,0.175,0.357c3.746,0.607,7.547,1.067,11.363,1.425    c14.477,1.329,29.367,1.054,43.701,1.017c0.393,0.005,0.617-0.3,0.645-0.608c0.289,0.027,0.588-0.134,0.619-0.497    c1.317-12.549,2.481-25.51,1.837-38.129c0.012-0.037,0.004-0.075-0.003-0.113c0.002-0.037,0.004-0.075-0.003-0.112    c-0.004-0.094-0.056-0.162-0.119-0.204c-0.079-0.089-0.187-0.161-0.335-0.188c-6.829-1.024-13.699-1.348-20.572-1.467    c-12.681-0.202-25.396,0.324-38.024-1.4c0.002-0.037-0.005-0.075-0.011-0.122c-0.045-0.349-0.628-0.309-0.621,0.047    c-0.002,0.028-0.003,0.047-0.004,0.065C24.135,8.922,24.066,9.451,24.436,9.52z M83.555,12.717    c-0.94,12.506-1.208,25.034-2.373,37.545c-0.028-0.002-0.046-0.012-0.083-0.014c-18.386,0.189-36.708-1.649-55.055-1.645    c0.089-0.079,0.142-0.188,0.151-0.337c0.562-12.763,0.492-25.9-1.027-38.608C44.411,13.319,64.202,9.816,83.555,12.717z"
         id="path118" /><path
         d="m 79.373475,83.780881 c 0.337,0.001 0.481,-0.533 0.121,-0.611 -1.469,-0.331 -3.04,-0.359 -4.538,-0.504 -0.353,-0.04 -0.377,0.511 -0.033,0.56 1.467,0.191 2.982,0.533 4.45,0.555 z"
         id="path120"
         inkscape:connector-curvature="0" /><path
         d="M77.524,15.448c-0.375,0.006-0.418,0.584-0.035,0.588c1.327,0.032,2.678,0.141,4.003,0.06    c0.469-0.019,0.539-0.726,0.044-0.746C80.211,15.289,78.856,15.405,77.524,15.448z"
         id="path122" /><path
         d="M75.71,14.151c1.797,0.154,3.594,0.326,5.404,0.424c0.411,0.015,0.449-0.619,0.038-0.644    c-1.809-0.117-3.613-0.159-5.416-0.219C75.447,13.695,75.422,14.124,75.71,14.151z"
         id="path124" /><path
         d="M30.638,45.946c1.709,0.233,3.425,0.484,5.147,0.652c0.419,0.044,0.457-0.6,0.039-0.653    c-1.71-0.214-3.444-0.336-5.157-0.485C30.351,45.433,30.332,45.9,30.638,45.946z"
         id="path128" /><path
         d="M27.46,46.347c2.323,0.756,4.877,1.263,7.314,1.511c0.4,0.042,0.406-0.537,0.036-0.606    c-2.426-0.444-4.841-0.915-7.267-1.368C27.285,45.831,27.212,46.267,27.46,46.347z"
         id="path130" /><path
         d="M20.049,81.093c-1.875-0.102-3.765-0.28-5.648-0.252c-0.3,0.001-0.325,0.421-0.028,0.466    c1.867,0.251,3.765,0.289,5.638,0.42C20.422,81.752,20.46,81.108,20.049,81.093z"
         id="path132" /><path
         fill="none"
         stroke="#000000"
         stroke-width="0"
         stroke-linecap="round"
         stroke-linejoin="round"
         d="M21.458,51.419    c0.028,0.002,0.056,0.003,0.085-0.014"
         id="path134" /><path
         d="M19.512,82.259c-2.332-0.298-4.706-0.505-7.052-0.728c-0.251-0.024-0.342,0.392-0.083,0.454    c2.26,0.556,4.776,0.902,7.099,0.881C19.869,82.861,19.902,82.301,19.512,82.259z"
         id="path136" /><circle
         style="opacity:1;vector-effect:none;fill:#aa0000;fill-opacity:1;stroke:none;stroke-width:0.37795275;stroke-linecap:round;stroke-linejoin:miter;stroke-miterlimit:4;stroke-dasharray:none;stroke-dashoffset:0;stroke-opacity:1"
         id="path955"
         cx="52.966103"
         cy="66.525421"
         r="0.84745765" /></g></g></svg>